…
# Problem 1

**import the dataset instacart**

``` r
data("instacart")

instacart %>% 
  group_by(department) %>% 
  summarize(n = n())
```

    ## # A tibble: 21 x 2
    ##    department           n
    ##    <chr>            <int>
    ##  1 alcohol           5598
    ##  2 babies           14941
    ##  3 bakery           48394
    ##  4 beverages       114046
    ##  5 breakfast        29500
    ##  6 bulk              1359
    ##  7 canned goods     46799
    ##  8 dairy eggs      217051
    ##  9 deli             44291
    ## 10 dry goods pasta  38713
    ## # … with 11 more rows

``` r
instacart %>% 
  group_by(department) %>% 
  summarize(
    mean_order_hour = mean(order_hour_of_day, na.rm = TRUE)
  )
```

    ## # A tibble: 21 x 2
    ##    department      mean_order_hour
    ##    <chr>                     <dbl>
    ##  1 alcohol                    13.7
    ##  2 babies                     13.5
    ##  3 bakery                     13.5
    ##  4 beverages                  13.5
    ##  5 breakfast                  13.5
    ##  6 bulk                       13.6
    ##  7 canned goods               13.6
    ##  8 dairy eggs                 13.6
    ##  9 deli                       13.6
    ## 10 dry goods pasta            13.7
    ## # … with 11 more rows
…
``` r
instacart %>% 
  group_by(aisle) %>% 
  summarize(items = n()) %>% 
  arrange(desc(items))
```

    ## # A tibble: 134 x 2
    ##    aisle                          items
    ##    <chr>                          <int>
    ##  1 fresh vegetables              150609
    ##  2 fresh fruits                  150473
    ##  3 packaged vegetables fruits     78493
    ##  4 yogurt                         55240
    ##  5 packaged cheese                41699
    ##  6 water seltzer sparkling water  36617
    ##  7 milk                           32644
    ##  8 chips pretzels                 31269
    ##  9 soy lactosefree                26240
    ## 10 bread                          23635
    ## # … with 124 more rows
…
